…
``` r
length(names(full.logit$coefficients))
```

    ## [1] 29

``` r
predictions = predict(full.logit, newdata=valid_df, type="response")

add_column(valid_df, predictions, .after="death_rate")
```

    ## # A tibble: 738 x 30
    ##    death_rate predictions total_population percent_fair_or… percent_smokers
    ##         <dbl>       <dbl>            <dbl>            <dbl>           <dbl>
    ##  1    0.0281       0.0585            10552             31.0            22.9
    ##  2    0.00885      0.0200            50991             19.4            17.4
    ##  3    0.0138       0.0258            54377             20.9            18.7
    ##  4    0.0205       0.0429            12697             28.6            21.1
    ##  5    0.00770      0.0279            17187             21.4            18.4
    ##  6    0.00643      0.0225            52608             23.2            20.0
    ##  7    0.00995      0.0175            90257             20.1            18.2
    ##  8    0.0362       0.0336            10565             30.4            22.6
    ##  9    0.0240       0.0219            30239             22.3            19.1
    ## 10    0.0129       0.0240            21975             30.0            23.3
    ## # … with 728 more rows, and 25 more variables:
    ## #   percent_adults_with_obesity <dbl>, food_environment_index <dbl>,
    ## #   percent_physically_inactive <dbl>,
    ## #   percent_with_access_to_exercise_opportunities <dbl>,
    ## #   percent_excessive_drinking <dbl>, percent_uninsured <dbl>,
    ## #   primary_care_physicians_rate <dbl>, preventable_hospitalization_rate <dbl>,
    ## #   percent_vaccinated <dbl>, percent_children_in_poverty <dbl>,
    ## #   percent_single_parent_households_CHR <dbl>, injury_death_rate <dbl>,
    ## #   overcrowding <dbl>, inadequate_facilities <dbl>, life_expectancy <dbl>,
…
``` r
length(names(exhaustive.logit$coefficients))
```

    ## [1] 25

``` r
exhaustive.predictions = predict(exhaustive.logit, newdata=valid_df1, 
                                 type="response")

add_column(valid_df1, predictions, .after="death_rate")
```

    ## # A tibble: 738 x 26
    ##    death_rate predictions total_population percent_fair_or… percent_smokers
    ##         <dbl>       <dbl>            <dbl>            <dbl>           <dbl>
    ##  1    0.0281       0.0585            10552             31.0            22.9
    ##  2    0.00885      0.0200            50991             19.4            17.4
    ##  3    0.0138       0.0258            54377             20.9            18.7
    ##  4    0.0205       0.0429            12697             28.6            21.1
    ##  5    0.00770      0.0279            17187             21.4            18.4
    ##  6    0.00643      0.0225            52608             23.2            20.0
    ##  7    0.00995      0.0175            90257             20.1            18.2
    ##  8    0.0362       0.0336            10565             30.4            22.6
    ##  9    0.0240       0.0219            30239             22.3            19.1
    ## 10    0.0129       0.0240            21975             30.0            23.3
    ## # … with 728 more rows, and 21 more variables:
    ## #   percent_adults_with_obesity <dbl>, food_environment_index <dbl>,
    ## #   percent_physically_inactive <dbl>,
    ## #   percent_with_access_to_exercise_opportunities <dbl>,
    ## #   percent_excessive_drinking <dbl>, percent_uninsured <dbl>,
    ## #   preventable_hospitalization_rate <dbl>, percent_vaccinated <dbl>,
    ## #   percent_children_in_poverty <dbl>,
    ## #   percent_single_parent_households_CHR <dbl>, injury_death_rate <dbl>,
    ## #   inadequate_facilities <dbl>, life_expectancy <dbl>,
…
